{
  "timestamp": 1486042034.583795,
  "gt03um":    7806,
  "apm10":     43,
  "pm100":     184,
  "apm25":     68,
  "gt100um":   1,
  "gt50um":    3,
  "pm10":      31,
  "apm100":    72,
  "gt25um":    49,
  "pm25":      49,
  "gt05um":    2195,
  "gt10um":    416
}